<?xml version="1.0" encoding="UTF-8" standalone="no"?>
<!-- Created with Inkscape (http://www.inkscape.org/) -->

<svg
   xmlns:dc="http://purl.org/dc/elements/1.1/"
   xmlns:cc="http://creativecommons.org/ns#"
   xmlns:rdf="http://www.w3.org/1999/02/22-rdf-syntax-ns#"
   xmlns:svg="http://www.w3.org/2000/svg"
   xmlns="http://www.w3.org/2000/svg"
   xmlns:sodipodi="http://sodipodi.sourceforge.net/DTD/sodipodi-0.dtd"
   xmlns:inkscape="http://www.inkscape.org/namespaces/inkscape"
   width="144"
   height="144"
   viewBox="0 0 144 144"
   id="svg4553"
   version="1.1"
   inkscape:version="0.91 r13725"
   sodipodi:docname="singalong.svg">
  <defs
     id="defs4555" />
  <sodipodi:namedview
     id="base"
     pagecolor="#ffffff"
     bordercolor="#666666"
     borderopacity="1.0"
     inkscape:pageopacity="0.0"
     inkscape:pageshadow="2"
     inkscape:zoom="5.6"
     inkscape:cx="82.934846"
     inkscape:cy="66.837881"
     inkscape:document-units="px"
     inkscape:current-layer="layer1"
     showgrid="false"
     units="px"
     inkscape:window-width="1920"
     inkscape:window-height="1005"
     inkscape:window-x="-9"
     inkscape:window-y="-9"
     inkscape:window-maximized="1" />
  <metadata
     id="metadata4558">
    <rdf:RDF>
      <cc:Work
         rdf:about="">
        <dc:format>image/svg+xml</dc:format>
        <dc:type
           rdf:resource="http://purl.org/dc/dcmitype/StillImage" />
        <dc:title></dc:title>
      </cc:Work>
    </rdf:RDF>
  </metadata>
  <g
     inkscape:label="Ebene 1"
     inkscape:groupmode="layer"
     id="layer1"
     transform="translate(0,-908.36216)">
    <path
       style="fill:none;fill-rule:evenodd;stroke:#000000;stroke-width:1px;stroke-linecap:butt;stroke-linejoin:miter;stroke-opacity:1"
       d="m 72.035714,1031.3622 c -4.436977,0.046 -8.885362,-0.6328 -13.214285,-1.6072 -3.85637,-0.8679 -7.671658,-2.0705 -11.25,-3.7499 -4.186721,-1.965 -8.199583,-4.401 -11.785715,-7.3215 -3.819684,-3.1107 -7.624661,-6.5019 -10.178571,-10.7143 -3.425441,-5.6498 -5.632949,-12.19094 -6.428572,-18.75 -0.726814,-5.99181 0.534763,-12.09602 1.607143,-18.03572 0.438732,-2.43005 1.054784,-4.84711 1.964286,-7.14285 1.314142,-3.31713 2.950414,-6.54375 5,-9.46428 2.54158,-3.62159 8.928571,-9.82143 8.928571,-9.82143 0,0 1.177458,4.7939 2.065133,7.08973 1.48834,3.84935 2.891121,7.87464 5.434868,11.12456 2.057472,2.62865 7.678572,6.42856 7.678572,6.42856 0,0 -1.282382,-8.61403 -1.063876,-12.93461 0.197417,-3.90359 0.870245,-7.83148 2.135305,-11.52967 1.387258,-4.05542 3.637874,-7.78358 5.892855,-11.42857 2.173487,-3.51326 4.517187,-6.96631 7.321429,-10 2.292031,-2.47957 4.84116,-4.77664 7.678572,-6.60715 2.372049,-1.53029 7.678572,-3.57142 7.678572,-3.57142 0,0 1.108913,5.23065 2.142856,7.67857 1.795479,4.25091 4.226461,8.24969 6.964285,11.96429 1.774595,2.40772 3.937561,4.51123 6.07143,6.60715 2.496812,2.45241 5.309108,4.56511 7.857138,6.96426 3.67725,3.46238 7.7766,6.60574 10.71429,10.71429 2.04381,2.8584 3.64634,6.09463 4.64285,9.46429 1.56406,5.28877 2.1055,10.91518 1.9643,16.42857 -0.099,3.86412 -0.83885,7.73066 -1.96429,11.42858 -2.16442,7.11175 -4.6333,14.42035 -9.10715,20.35715 -2.66946,3.5424 -6.39526,6.256 -10.17857,8.5714 -3.13996,1.9217 -6.681094,3.1368 -10.178568,4.2857 -3.140997,1.0318 -6.395653,1.7001 -9.642858,2.3215 -2.893771,0.5537 -5.803884,1.2192 -8.75,1.25 z"
       id="path4561"
       inkscape:connector-curvature="0"
       sodipodi:nodetypes="aaaaaaaaacaacaaaaacaaaaaaaaaaaaa" />
    <path
       style="fill:none;fill-rule:evenodd;stroke:#000000;stroke-width:1px;stroke-linecap:butt;stroke-linejoin:miter;stroke-opacity:1"
       d="m 50.847199,1023.9934 c -5.212317,-6.1979 -5.652366,-17.307 -1.483012,-24.24944 3.797265,-6.32291 12.761289,-8.87197 20.130179,-9.18487 4.749504,-0.20167 9.589272,1.99712 13.429734,4.79879 2.00736,1.46439 4.827787,8.59102 4.531722,5.91852 l -0.670108,-61.23567 c 10.036065,7.10111 20.835556,14.73028 25.741806,26.4658 3.25734,9.08306 1.50957,19.00795 -1.17048,27.99502 -1.54892,1.59821 -0.37954,-7.65944 -1.28154,-11.36279 -1.61842,-6.64471 -2.8814,-11.63448 -7.33338,-19.16155 -3.386674,-4.91941 -7.908146,-8.9107 -12.560141,-12.59747 0.07013,16.75532 -1.148756,33.59179 0.500557,50.26686 0.883423,5.5183 2.924481,11.8558 0.618301,17.0567 -2.438713,5.4998 -7.953044,10.2346 -13.806431,11.625 -8.882791,2.11 -20.770848,0.6526 -26.647207,-6.3349 z"
       id="path4565"
       inkscape:connector-curvature="0"
       sodipodi:nodetypes="aaaaccccacccaaa" />
    <path
       style="fill:none;fill-rule:evenodd;stroke:#000000;stroke-width:1px;stroke-linecap:butt;stroke-linejoin:miter;stroke-opacity:1"
       d="m 12.227824,1041.8483 c 0,0 11.463744,-1.9097 17.228105,-2.6305 11.120345,-1.3906 22.338864,-1.8967 33.461864,-3.2659 15.452587,-1.9021 30.734141,-5.0754 46.199357,-6.872 6.55187,-0.7611 19.71861,-1.653 19.71861,-1.653 1.96803,-0.1646 2.75517,0.9214 3.17754,2.1233 0.6252,1.7789 0.18799,5.1816 -1.70304,5.3943 -11.18841,1.2587 -21.0285,2.222 -31.509137,3.6057 -11.931663,1.5753 -23.754414,3.9439 -35.707714,5.3455 -7.518736,0.8818 -15.109322,1.0518 -22.62903,1.9251 -9.149077,1.0626 -18.762077,2.9852 -27.3362,4.0305 -1.735229,-0.1215 -2.634766,-1.3182 -3.3258429,-2.783 -0.9341157,-1.2574 -0.5424162,-3.072 0.2602729,-4.2376 0.449534,-0.6527 1.443475,-0.655 2.165215,-0.9824 z"
       id="path4572"
       inkscape:connector-curvature="0"
       sodipodi:nodetypes="caaasasaaaccac" />
    <path
       style="fill:none;fill-rule:evenodd;stroke:#000000;stroke-width:1px;stroke-linecap:butt;stroke-linejoin:miter;stroke-opacity:1"
       d="m 17.86919,1026.6729 c 9.077026,-0.047 18.07703,1.777 27.045254,3.1789 6.139908,0.9598 18.296793,3.5784 18.296793,3.5784 -8.122828,0.8983 -19.999608,1.7859 -28.123855,2.6713 l -19.04402,-2.1982 c 0,0 -1.262355,-2.6411 -1.251479,-4.0559 0.0078,-1.0171 0.944408,-2.9016 0.944408,-2.9016 1.123085,-0.5098 1.416148,-0.2692 2.132899,-0.2729 z"
       id="path4580"
       inkscape:connector-curvature="0"
       sodipodi:nodetypes="aacccaca" />
    <path
       style="fill:none;fill-rule:evenodd;stroke:#000000;stroke-width:1px;stroke-linecap:butt;stroke-linejoin:miter;stroke-opacity:1"
       d="m 101.44679,1039.8618 c 0,0 14.08763,1.1676 20.92629,2.8358 1.32121,0.3222 2.89777,0.3956 3.84105,1.3753 0.85116,0.884 1.41804,2.3228 1.1091,3.5103 -0.23408,0.8999 -1.16237,1.5787 -2.02991,1.9132 -2.06172,0.7947 -6.62753,-0.1317 -6.62753,-0.1317 0,0 -13.47318,-1.2367 -20.145421,-2.3194 -5.800066,-0.9411 -17.251154,-3.6243 -17.251154,-3.6243 z"
       id="path4582"
       inkscape:connector-curvature="0"
       sodipodi:nodetypes="caaaacacc" />
  </g>
</svg>
